%YAML 1.1
%TAG !u! tag:unity3d.com,2011:
--- !u!114 &11400000
MonoBehaviour:
  m_ObjectHideFlags: 0
  m_CorrespondingSourceObject: {fileID: 0}
  m_PrefabInstance: {fileID: 0}
  m_PrefabAsset: {fileID: 0}
  m_GameObject: {fileID: 0}
  m_Enabled: 1
  m_EditorHideFlags: 0
  m_Script: {fileID: 42938266, guid: e743331561ef77147ae48cda9bcb8209, type: 3}
  m_Name: PlayMakerGlobals
  m_EditorClassIdentifier: 
  variables:
    floatVariables:
    - useVariable: 1
      name: Damage
      tooltip: 
      showInInspector: 0
      networkSync: 0
      value: 0
    intVariables: []
    boolVariables: []
    stringVariables: []
    vector2Variables: []
    vector3Variables: []
    colorVariables: []
    rectVariables: []
    quaternionVariables: []
    gameObjectVariables:
    - useVariable: 1
      name: enteredPlatform
      tooltip: 
      showInInspector: 0
      networkSync: 0
      value: {fileID: 0}
    objectVariables: []
    materialVariables: []
    textureVariables: []
    arrayVariables:
    - useVariable: 1
      name: AcceptedTags
      tooltip: 
      showInInspector: 0
      networkSync: 0
      type: 4
      objectTypeName: UnityEngine.Object
      floatValues: []
      intValues: 
      boolValues: 
      stringValues:
      - plat1
      - plat2
      - plat3
      - plat4
      - plat5
      - plat6
      - rock
      - Spawned
      vector4Values: []
      objectReferences: []
    enumVariables: []
    categories:
    - 
    variableCategoryIDs: 000000000000000000000000
  events:
  - JUMPDOWN
  - OBJECT_DESTROY
  - spawnNewPlatform1
  - spawnNewPlatform2
  - spawnNewPlatform3
  - spawnNewPlatform4
  - spawnNewPlatform5
  - spawnNewPlatform6
  - spawnRock
  - Freeze1
  - Freeze7
  - Freeze6
  - Freeze5
  - Freeze4
  - Freeze3
  - Freeze2
  - DAMAGE
  - HEAL
  - UPDATEUI
