%YAML 1.1
%TAG !u! tag:unity3d.com,2011:
--- !u!114 &11400000
MonoBehaviour:
  m_ObjectHideFlags: 0
  m_CorrespondingSourceObject: {fileID: 0}
  m_PrefabInstance: {fileID: 0}
  m_PrefabAsset: {fileID: 0}
  m_GameObject: {fileID: 0}
  m_Enabled: 1
  m_EditorHideFlags: 0
  m_Script: {fileID: 1219815696, guid: e743331561ef77147ae48cda9bcb8209, type: 3}
  m_Name: Spawn_obj
  m_EditorClassIdentifier: 
  category: General
  fsm:
    dataVersion: 2
    usedInTemplate: {fileID: 11400000}
    name: Cteate_Obj
    startState: Spawn
    states:
    - name: Spawn
      description: 
      colorIndex: 0
      position:
        serializedVersion: 2
        x: 58
        y: 112
        width: 100
        height: 16
      isBreakpoint: 0
      isSequence: 0
      hideUnused: 0
      transitions: []
      actionData:
        actionNames:
        - HutongGames.PlayMaker.Actions.ArrayGetRandom
        - HutongGames.PlayMaker.Actions.CreateObject
        customNames:
        - 
        - 
        actionEnabled: 0101
        actionIsOpen: 0101
        actionStartIndex: 0000000005000000
        actionHashCodes: 59788700bf83c900
        unityObjectParams: []
        fsmGameObjectParams:
        - useVariable: 1
          name: Object_Spawned
          tooltip: 
          showInInspector: 0
          networkSync: 0
          value: {fileID: 0}
        - useVariable: 0
          name: 
          tooltip: 
          showInInspector: 0
          networkSync: 0
          value: {fileID: 0}
        - useVariable: 1
          name: Object_Spawned
          tooltip: 
          showInInspector: 0
          networkSync: 0
          value: {fileID: 0}
        fsmOwnerDefaultParams: []
        animationCurveParams: []
        functionCallParams: []
        fsmTemplateControlParams: []
        fsmEventTargetParams: []
        fsmPropertyParams: []
        layoutOptionParams: []
        fsmStringParams: []
        fsmObjectParams: []
        fsmVarParams:
        - variableName: Object_Spawned
          objectType: UnityEngine.GameObject
          useVariable: 1
          type: 3
          floatValue: 0
          intValue: 0
          boolValue: 0
          stringValue: 
          vector4Value: {x: 0, y: 0, z: 0, w: 0}
          objectReference: {fileID: 0}
          arrayValue:
            useVariable: 0
            name: 
            tooltip: 
            showInInspector: 0
            networkSync: 0
            type: -1
            objectTypeName: 
            floatValues: []
            intValues: 
            boolValues: 
            stringValues: []
            vector4Values: []
            objectReferences: []
        fsmArrayParams:
        - useVariable: 1
          name: Object_Prefabs
          tooltip: 
          showInInspector: 1
          networkSync: 0
          type: 3
          objectTypeName: UnityEngine.GameObject
          floatValues: []
          intValues: 
          boolValues: 
          stringValues: []
          vector4Values: []
          objectReferences:
          - {fileID: 6112975686693771591, guid: 32adc37bc77267a4e99589fc1a123c74,
            type: 3}
          - {fileID: 6112975686693771591, guid: 39b83321418eb2141a3d59d9ae63276c,
            type: 3}
          - {fileID: 6112975686693771591, guid: 623d88d46ab30b6459c2e08a5a93ff43,
            type: 3}
          - {fileID: 6112975686693771591, guid: 32adc37bc77267a4e99589fc1a123c74,
            type: 3}
          - {fileID: 6112975686693771591, guid: 623d88d46ab30b6459c2e08a5a93ff43,
            type: 3}
        fsmEnumParams: []
        fsmFloatParams: []
        fsmIntParams:
        - useVariable: 1
          name: 
          tooltip: 
          showInInspector: 0
          networkSync: 0
          value: 0
        fsmBoolParams:
        - useVariable: 0
          name: 
          tooltip: 
          showInInspector: 0
          networkSync: 0
          value: 0
        fsmVector2Params: []
        fsmVector3Params:
        - useVariable: 1
          name: 
          tooltip: 
          showInInspector: 0
          networkSync: 0
          value: {x: 0, y: 0, z: 0}
        - useVariable: 1
          name: 
          tooltip: 
          showInInspector: 0
          networkSync: 0
          value: {x: 0, y: 0, z: 0}
        fsmColorParams: []
        fsmRectParams: []
        fsmQuaternionParams: []
        stringParams: []
        byteData: 00
        arrayParamSizes: 
        arrayParamTypes: []
        customTypeSizes: 
        customTypeNames: []
        paramDataType: 290000002700000010000000110000000100000013000000130000001c0000001c00000013000000
        paramName:
        - array
        - storeValue
        - index
        - noRepeat
        - everyFrame
        - gameObject
        - spawnPoint
        - position
        - rotation
        - storeObject
        paramDataPos: 00000000000000000000000000000000000000000000000001000000000000000100000002000000
        paramByteDataSize: 00000000000000000000000000000000010000000000000000000000000000000000000000000000
    events: []
    globalTransitions: []
    variables:
      floatVariables: []
      intVariables: []
      boolVariables: []
      stringVariables: []
      vector2Variables: []
      vector3Variables: []
      colorVariables: []
      rectVariables: []
      quaternionVariables: []
      gameObjectVariables:
      - useVariable: 1
        name: Object_Spawned
        tooltip: 
        showInInspector: 0
        networkSync: 0
        value: {fileID: 0}
      objectVariables: []
      materialVariables: []
      textureVariables: []
      arrayVariables:
      - useVariable: 1
        name: Object_Prefabs
        tooltip: 
        showInInspector: 1
        networkSync: 0
        type: 3
        objectTypeName: UnityEngine.GameObject
        floatValues: []
        intValues: 
        boolValues: 
        stringValues: []
        vector4Values: []
        objectReferences:
        - {fileID: 6112975686693771591, guid: 32adc37bc77267a4e99589fc1a123c74, type: 3}
        - {fileID: 6112975686693771591, guid: 39b83321418eb2141a3d59d9ae63276c, type: 3}
        - {fileID: 6112975686693771591, guid: 623d88d46ab30b6459c2e08a5a93ff43, type: 3}
        - {fileID: 6112975686693771591, guid: 32adc37bc77267a4e99589fc1a123c74, type: 3}
        - {fileID: 6112975686693771591, guid: 623d88d46ab30b6459c2e08a5a93ff43, type: 3}
      enumVariables: []
      categories:
      - 
      variableCategoryIDs: 0000000000000000
    description: 
    docUrl: 
    showStateLabel: 0
    maxLoopCount: 0
    watermark: 
    password: 
    locked: 0
    manualUpdate: 0
    keepDelayedEventsOnStateExit: 0
    preprocessed: 0
    ExposedEvents: []
    RestartOnEnable: 1
    EnableDebugFlow: 0
    EnableBreakpoints: 1
    editorFlags: 1
    activeStateName: 
    mouseEvents: 0
    handleLevelLoaded: 0
    handleTriggerEnter2D: 0
    handleTriggerExit2D: 0
    handleTriggerStay2D: 0
    handleCollisionEnter2D: 0
    handleCollisionExit2D: 0
    handleCollisionStay2D: 0
    handleTriggerEnter: 0
    handleTriggerExit: 0
    handleTriggerStay: 0
    handleCollisionEnter: 0
    handleCollisionExit: 0
    handleCollisionStay: 0
    handleParticleCollision: 0
    handleControllerColliderHit: 0
    handleJointBreak: 0
    handleJointBreak2D: 0
    handleOnGUI: 0
    handleFixedUpdate: 0
    handleLateUpdate: 0
    handleApplicationEvents: 0
    handleUiEvents: 0
    handleLegacyNetworking: 0
    handleAnimatorMove: 0
    handleAnimatorIK: 0
